{
  "project_info": {
    "project_number": "388218415038",
    "project_id": "messageme-app-1f7d3",
    "storage_bucket": "messageme-app-1f7d3.appspot.com"
  },
  "client": [
    {
      "client_info": {
        "mobilesdk_app_id": "1:388218415038:android:7eb95fe2bed38d865abbef",
        "android_client_info": {
          "package_name": "fkr.allazekaii.clustr_map_app"
        }
      },
      "oauth_client": [
        {
          "client_id": "388218415038-ct9t77m0lpctpc1tq6sal57nibp59f6v.apps.googleusercontent.com",
          "client_type": 3
        }
      ],
      "api_key": [
        {
          "current_key": "AIzaSyBkmldc_6spwtL_Zgv1Zk9JvnCmN-Op6p4"
        }
      ],
      "services": {
        "appinvite_service": {
          "other_platform_oauth_client": [
            {
              "client_id": "388218415038-ct9t77m0lpctpc1tq6sal57nibp59f6v.apps.googleusercontent.com",
              "client_type": 3
            }
          ]
        }
      }
    }
  ],
  "configuration_version": "1"
}